<!-- Generated by IcoMoon.io -->
<svg version="1.1" xmlns="http://www.w3.org/2000/svg" width="32" height="32" viewBox="0 0 32 32">
<title>baseinfo</title>
<path fill="#758290" d="M23.838 1.945h-3.958v-1.088c0.002-0.028 0.003-0.053 0.003-0.080s-0.001-0.053-0.003-0.080c-0.036-0.392-0.334-0.697-0.691-0.697h-4.905c-0.353 0-0.643 0.291-0.688 0.672-0.006 0.035-0.007 0.070-0.007 0.105s0.001 0.070 0.007 0.105v1.063h-4.227v4.278h14.47v-4.278z"></path>
<path fill="#758290" d="M28.436 3.733h-3.855v4.126h-17.072v-4.126h-3.978c-0.771 0-1.398 0.656-1.398 1.464v23.237c0 0.792 0.612 1.433 1.369 1.433h24.995c0.756 0 1.37-0.641 1.37-1.435v-23.2c0-0.828-0.64-1.498-1.431-1.498zM5.435 26.434c0-2.612 2.282-4.75 5.448-5.389v-1.802c-1.472-0.786-2.485-2.44-2.485-4.353 0-2.674 1.979-4.838 4.421-4.838 0.373 0 0.735 0.050 1.081 0.147 1.827 0.594 3.157 2.443 3.157 4.636 0 1.945-1.048 3.621-2.562 4.391v1.764c0.062 0.012 0.124 0.026 0.187 0.042 0 0 0.691 0.183 0.697 0.185 2.707 0.837 4.614 2.857 4.614 5.219h-14.558zM20.834 23.847c-0.864-1.598-1.903-2.956-4.578-3.952 0.478-0.216 0.998-0.382 1.548-0.489l-0.033-1.571c0.486-0.98 0.981-2.762 0.635-4.256-0.225-0.97-0.689-1.786-1.154-2.552 0.524-0.339 1.384-0.66 2.032-0.66 1.968 0 3.563 1.772 3.563 3.958 0 1.599-0.855 2.974-2.081 3.599v1.486c2.567 0.509 4.468 2.3 4.481 4.437l-4.414-0z"></path>
</svg>
