<?xml version="1.0" encoding="UTF-8"?>
<svg width="16px" height="15px" viewBox="0 0 16 15" version="1.1" xmlns="http://www.w3.org/2000/svg" xmlns:xlink="http://www.w3.org/1999/xlink">
    <title>申请公司</title>
    <g id="02_班车路线_航号管理" stroke="none" stroke-width="1" fill="none" fill-rule="evenodd">
        <g id="01_-班车路线_公司详情" transform="translate(-253.000000, -763.000000)" fill="#638CA6" fill-rule="nonzero">
            <g id="申请公司" transform="translate(253.000000, 763.000000)">
                <path d="M13.0136248,9.15126231 L14.6947907,10.8185326 L10.9590458,14.5250003 L15.7608093,14.5250003 C15.8530028,14.5251098 15.9369465,14.577696 15.9766513,14.660214 C16.0163561,14.7427319 16.0047708,14.8405267 15.9468623,14.9116712 C15.8889537,14.9828157 15.7950062,15.0146749 15.7052976,14.99359 L15.7052976,14.99359 L8.81087141,14.99359 L8.81087141,13.319278 L13.0136248,9.15126231 Z M11.4893118,-2.66453526e-15 C12.4150862,0.0026370364 13.164914,0.746267136 13.167573,1.66438963 L13.167573,1.66438963 L13.1514359,7.96986575 C13.1514359,8.03964208 12.5359658,8.56904601 12.3123052,8.79085794 C11.1504321,9.94312769 10.18285,10.9667273 9.21397684,11.9288726 C8.63304027,12.5050074 8.21347496,12.8890973 8.21347496,12.9531123 C8.21347496,13.7331349 8.19056024,14.3454383 8.18668733,14.9474992 L8.18668733,14.9474992 L1.67826122,14.9474992 C0.752486779,14.9448622 0.00265901435,14.2012321 3.37507799e-14,13.2831096 L3.37507799e-14,13.2831096 L3.37507799e-14,1.66438963 C0.00265901435,0.746267136 0.752486779,0.0026370364 1.67826122,-2.66453526e-15 L1.67826122,-2.66453526e-15 Z M6.57265187,9.73027786 L2.71297381,9.73027786 C2.38658407,9.73115312 2.12201292,9.99296582 2.1204185,10.3166551 L2.1204185,10.3166551 L2.1204185,10.4216397 C2.12059513,10.746329 2.38557962,11.0096958 2.71297381,11.0105776 L2.71297381,11.0105776 L6.57265187,11.0105776 C6.89991996,11.0095198 7.16470841,10.7462045 7.16488444,10.4216397 L7.16488444,10.4216397 L7.16488444,10.3166551 C7.16329116,9.99309024 6.89891563,9.73132854 6.57265187,9.73027786 L6.57265187,9.73027786 Z M14.2742572,7.90136971 C14.2742572,7.90136971 14.9181285,7.70580393 15.535535,8.31746712 C16.1784382,8.95505638 15.9551003,9.56767979 15.9551003,9.56767979 L15.9551003,9.56767979 L15.1150015,10.4024352 L13.4351266,8.73548498 Z M8.34773586,6.3694911 L2.68069956,6.3694911 C2.35430981,6.37036636 2.08973867,6.63217906 2.08814425,6.95586837 L2.08814425,6.95586837 L2.08814425,7.06085295 C2.08832088,7.38554223 2.35330536,7.64890904 2.68069956,7.64979082 L2.68069956,7.64979082 L8.34773586,7.64979082 C8.67500395,7.64873308 8.93979239,7.38541769 8.93996842,7.06085295 L8.93996842,7.06085295 L8.93996842,6.95586837 C8.93837515,6.63230348 8.67399961,6.37054178 8.34773586,6.3694911 L8.34773586,6.3694911 Z M9.45635649,3.10472682 L2.61421459,3.10472682 C2.25816442,3.1057814 1.96979288,3.39176942 1.96872951,3.74487668 C1.96979288,4.09798394 2.25816442,4.38397195 2.61421459,4.38502654 L2.61421459,4.38502654 L9.45635649,4.38502654 C9.81240667,4.38397195 10.1007782,4.09798394 10.1018416,3.74487668 C10.1007782,3.39176942 9.81240667,3.1057814 9.45635649,3.10472682 L9.45635649,3.10472682 Z" id="形状结合"></path>
            </g>
        </g>
    </g>
</svg>