<!-- Generated by IcoMoon.io -->
<svg version="1.1" xmlns="http://www.w3.org/2000/svg" width="32" height="32" viewBox="0 0 32 32">
<title>coupon</title>
<path fill="#758290" d="M25.731 23.81c-0.566 0-1.022-0.388-1.022-0.865s0.457-0.865 1.022-0.865h4.136v-16.479c0-1.907-1.56-3.468-3.468-3.468h-4.681c-0.865 0-1.731 0.347-2.426 1.042-0.865 0.865-2.078 1.383-3.298 1.383s-2.426-0.518-3.291-1.383c-0.688-0.695-1.554-1.042-2.419-1.042h-4.681c-1.908 0-3.468 1.56-3.468 3.468v16.472h4.136c0.566 0 1.022 0.388 1.022 0.865s-0.457 0.865-1.022 0.865h-4.136v2.589c0 1.907 1.56 3.468 3.468 3.468h4.504c1.043 0 1.908-0.347 2.773-1.042 0.865-0.865 2.078-1.383 3.291-1.383s2.426 0.525 3.291 1.39c0.695 0.688 1.56 1.042 2.426 1.042h4.504c1.908 0 3.468-1.56 3.468-3.468v-2.589h-4.129zM13.771 23.467h-4.076c-0.643 0-1.162-0.479-1.162-1.067s0.519-1.067 1.162-1.067h4.076c0.643 0 1.162 0.479 1.162 1.067s-0.519 1.067-1.162 1.067zM22.304 23.467h-4.076c-0.643 0-1.162-0.479-1.162-1.067s0.519-1.067 1.162-1.067h4.076c0.643 0 1.162 0.479 1.162 1.067s-0.519 1.067-1.162 1.067zM22.399 15.662c0.589 0 1.068 0.463 1.068 1.032s-0.479 1.032-1.068 1.032h-5.331v2.574c0 0.569-0.479 1.032-1.068 1.032s-1.068-0.463-1.068-1.032v-2.574h-5.331c-0.589 0-1.068-0.463-1.068-1.032s0.479-1.032 1.068-1.032h5.331v-1.542h-5.331c-0.589 0-1.068-0.463-1.068-1.032s0.479-1.032 1.068-1.032h4.729l-3.887-3.911c-0.411-0.41-0.397-1.066 0.027-1.456 0.411-0.384 1.068-0.384 1.478 0l4.072 4.096 4.017-3.792c0.424-0.397 1.102-0.384 1.506 0.026 0.397 0.397 0.397 1.032 0 1.429l-3.826 3.607h4.681c0.589 0 1.068 0.463 1.068 1.032s-0.479 1.032-1.068 1.032h-5.331v1.549h5.331v-0.007z"></path>
</svg>
