<!-- Generated by IcoMoon.io -->
<svg version="1.1" xmlns="http://www.w3.org/2000/svg" width="32" height="32" viewBox="0 0 32 32">
<title>export</title>
<path fill="#638ca6" stroke="#638ca6" stroke-linejoin="miter" stroke-linecap="butt" stroke-miterlimit="4" stroke-width="0.4267" d="M8.536 18.154c-0.001 0.021-0.002 0.042-0.002 0.063 0 0.543 0.464 0.983 1.037 0.983s1.037-0.44 1.037-0.983c0-0.013-0.001-0.026-0.001-0.038 0.022-5.056 4.356-9.165 9.688-9.181v4.369c0 0.541 0.352 0.693 0.783 0.339l6.339-5.217c0.431-0.354 0.422-0.925-0.018-1.268l-6.303-4.907c-0.441-0.343-0.801-0.181-0.801 0.359v4.361c-1.58 0.004-3.113 0.299-4.558 0.879-1.404 0.563-2.665 1.37-3.748 2.396s-1.933 2.223-2.527 3.555c-0.607 1.36-0.918 2.803-0.926 4.29z"></path>
<path fill="#638ca6" stroke="#638ca6" stroke-linejoin="miter" stroke-linecap="butt" stroke-miterlimit="4" stroke-width="0.4267" d="M26.751 14.449c-0.543 0-0.982 0.44-0.982 0.982v9.847c0 0.271-0.22 0.491-0.491 0.491h-20.689c-0.271 0-0.491-0.22-0.491-0.491v-20.689c0-0.271 0.22-0.491 0.491-0.491h5.674c0.543 0 0.982-0.44 0.982-0.982s-0.44-0.982-0.982-0.982h-5.674c-1.354 0-2.456 1.102-2.456 2.456v20.689c0 1.354 1.102 2.456 2.456 2.456h20.689c1.354 0 2.456-1.102 2.456-2.456v-9.847c0-0.542-0.44-0.982-0.982-0.982z"></path>
</svg>
