<?xml version="1.0" encoding="UTF-8"?>
<svg width="15px" height="15px" viewBox="0 0 15 15" version="1.1" xmlns="http://www.w3.org/2000/svg" xmlns:xlink="http://www.w3.org/1999/xlink">
    <title>邀请活动</title>
    <g id="icon_list" stroke="none" stroke-width="1" fill="none" fill-rule="evenodd">
        <g id="icon" transform="translate(-319.000000, -214.000000)" fill="#758290" fill-rule="nonzero">
            <g id="邀请活动" transform="translate(319.000000, 214.000000)">
                <path d="M13.0021143,6.39597385 C13.3062333,6.46382511 13.5709316,6.64973225 13.7379557,6.91278186 C13.8574603,7.10103042 13.920904,7.31940502 13.920904,7.54238228 L13.920904,11.5716487 C13.920904,12.5447421 13.1320559,13.3335902 12.1589625,13.3335902 L2.76194145,13.3335902 C1.78884806,13.3335902 1,12.5447421 1,11.5716487 L1,7.54678713 C1,7.11791706 1.23374658,6.72313923 1.60977437,6.5169048 C1.98580216,6.31067037 2.44433941,6.32576471 2.80598999,6.55628238 L7.44811841,9.51605036 L12.1163823,6.55099655 C12.3793781,6.38388765 12.6979952,6.32812259 13.0021143,6.39597385 Z M10.3970211,1 C11.3701145,1 12.1589625,1.78884806 12.1589625,2.76194145 L12.1589625,5.69851055 L7.47014268,8.63507964 L2.76194145,5.69851055 L2.76194145,2.76194145 C2.76194145,1.78884806 3.55078951,1 4.52388291,1 L10.3970211,1 Z M7.460452,3.1125678 C6.98904179,2.64513615 6.22894579,2.64513615 5.75753558,3.1125678 C5.29478831,3.5715801 5.28641728,4.3171254 5.73874154,4.78641219 L5.73874154,4.78641219 L5.75753558,4.80520623 L7.09543646,6.13547203 C7.29750348,6.33591572 7.62340052,6.33591572 7.82546754,6.13547203 L7.82546754,6.13576568 L9.16336842,4.80549988 L9.18480537,4.78347562 C9.63447674,4.31383979 9.62494021,3.57051282 9.16336842,3.1125678 C8.69195821,2.64513615 7.93186221,2.64513615 7.460452,3.1125678 Z" id="形状结合"></path>
            </g>
        </g>
    </g>
</svg>