<!-- Generated by IcoMoon.io -->
<svg version="1.1" xmlns="http://www.w3.org/2000/svg" width="32" height="32" viewBox="0 0 32 32">
<title>lougout</title>
<path fill="#758290" d="M16.18 16.36c-0.538 0-0.896-0.449-0.896-0.988v-11.476c0-0.538 0.358-0.986 0.896-0.986s0.897 0.448 0.897 0.986v11.476c0 0.538-0.359 0.988-0.897 0.988z"></path>
<path fill="#758290" d="M16.18 30.706c-7.353 0-13.271-5.828-13.271-13.091 0-4.484 2.332-8.518 6.188-10.94 0.448-0.269 0.986-0.18 1.255 0.269 0.269 0.448 0.179 0.986-0.269 1.254-3.318 2.063-5.29 5.649-5.29 9.507-0.090 6.096 5.021 11.209 11.388 11.209s11.478-5.113 11.478-11.299c0-3.856-1.972-7.354-5.29-9.505-0.449-0.269-0.538-0.807-0.269-1.255s0.807-0.538 1.255-0.269c3.856 2.42 6.188 6.545 6.188 10.938-0.090 7.354-6.009 13.183-13.361 13.183z"></path>
</svg>
