<!-- Generated by IcoMoon.io -->
<svg version="1.1" xmlns="http://www.w3.org/2000/svg" width="30" height="32" viewBox="0 0 30 32">
<title>monitoring</title>
<path fill="#758290" d="M14.814 24.296c-5.972 0-10.814-4.842-10.814-10.814 0-5.974 4.842-10.814 10.814-10.814s10.814 4.84 10.814 10.814c0 5.972-4.842 10.814-10.814 10.814zM14.814 22.752c5.12 0 9.27-4.152 9.27-9.27 0-5.12-4.15-9.27-9.27-9.27s-9.27 4.15-9.27 9.27c0 5.118 4.15 9.27 9.27 9.27z"></path>
<path fill="#758290" d="M14.814 18.116c-2.56 0-4.634-2.074-4.634-4.634 0-2.562 2.074-4.636 4.634-4.636s4.634 2.074 4.634 4.636c0 2.56-2.074 4.634-4.634 4.634zM14.814 16.572c1.706 0 3.090-1.384 3.090-3.090 0-1.708-1.384-3.090-3.090-3.090s-3.090 1.382-3.090 3.090c0 1.706 1.384 3.090 3.090 3.090z"></path>
<path fill="#758290" d="M7.862 27.385h13.906c0.426 0 0.772-0.346 0.772-0.772v0c0-0.426-0.346-0.772-0.772-0.772h-13.906c-0.426 0-0.772 0.346-0.772 0.772v0c0 0.426 0.346 0.772 0.772 0.772z"></path>
<path fill="#758290" d="M18.654 22.567l0.996 4.062-1.502 0.368-0.994-4.062 1.5-0.368zM10.424 22.567l-0.994 4.062 1.5 0.368 0.994-4.062-1.5-0.368z"></path>
</svg>
