<!-- Generated by IcoMoon.io -->
<svg version="1.1" xmlns="http://www.w3.org/2000/svg" width="32" height="32" viewBox="0 0 32 32">
<title>passenger</title>
<path fill="#758290" d="M27.491 29.294h2.953c0.070-0.514 0.102-1.037 0.102-1.572 0-5.111-3.138-9.44-7.465-10.903 2.257-1.254 3.799-3.778 3.799-6.69 0-4.058-2.995-7.366-6.748-7.524 1.726 1.984 2.778 4.621 2.778 7.516 0 2.287-0.659 4.416-1.786 6.189 3.855 2.897 6.366 7.631 6.366 12.977v0.009zM15.924 17.105c4.937 1.636 8.512 6.455 8.512 12.145 0 0.553-0.032 1.099-0.1 1.634h-24.237c-0.066-0.544-0.098-1.090-0.098-1.634 0-5.692 3.578-10.511 8.512-12.145-2.345-1.363-3.932-3.981-3.932-6.985 0-4.412 3.422-7.987 7.637-7.987 4.218 0 7.635 3.575 7.635 7.987 0 3.004-1.585 5.621-3.93 6.985z"></path>
</svg>
