<?xml version="1.0" encoding="UTF-8"?>
<svg width="12px" height="12px" viewBox="0 0 12 12" version="1.1" xmlns="http://www.w3.org/2000/svg" xmlns:xlink="http://www.w3.org/1999/xlink">
    <!-- Generator: Sketch 49.3 (51167) - http://www.bohemiancoding.com/sketch -->
    <title>人数</title>
    <desc>Created with Sketch.</desc>
    <defs></defs>
    <g id="icon_list" stroke="none" stroke-width="1" fill="none" fill-rule="evenodd">
        <g id="icon" transform="translate(-101.000000, -763.000000)" fill="#638CA6" fill-rule="nonzero">
            <g id="人数" transform="translate(101.000000, 763.000000)">
                <path d="M6,11.6666667 C3.195,11.6666667 0.9225,9.96833332 0.9225,8.91666666 C0.9225,8.06333332 2.4225,6.935 4.48666666,6.53666666 C5.02083332,6.4125 5.285,6.00166666 4.80916666,5.2325 C4.16443124,4.49805249 3.79837406,3.56034438 3.775,2.58333334 C3.65659865,1.71872999 4.05072427,0.863999086 4.78515055,0.392643728 C5.51957684,-0.0787116287 6.4607966,-0.0810064269 7.19751257,0.386762122 C7.93422854,0.854530671 8.33251731,1.70732958 8.21833334,2.5725 C8.22640427,3.55433827 7.85328635,4.50102418 7.1775,5.21333334 C6.97297498,5.40395373 6.88769891,5.69037483 6.95465254,5.96182248 C7.02160616,6.23327014 7.23029191,6.4471844 7.5,6.52083334 C9.57083334,6.9175 11.075,8.06083334 11.075,8.91666666 C11.075,9.96833332 8.80083334,11.6666667 5.99666666,11.6666667 L6,11.6666667 Z" id="Shape"></path>
            </g>
        </g>
    </g>
</svg>