<!-- Generated by IcoMoon.io -->
<svg version="1.1" xmlns="http://www.w3.org/2000/svg" width="32" height="32" viewBox="0 0 32 32">
<title>plus</title>
<path fill="#758290" d="M4.374 14.052h21.709c0.643 0 1.171 0.531 1.171 1.174s-0.528 1.174-1.171 1.174h-21.709c-0.643 0-1.174-0.531-1.174-1.174s0.531-1.174 1.174-1.174z"></path>
<path fill="#758290" d="M14.053 26.080v-21.706c0-0.643 0.531-1.174 1.174-1.174s1.174 0.531 1.174 1.174v21.706c0 0.646-0.531 1.174-1.174 1.174s-1.174-0.528-1.174-1.174z"></path>
</svg>
