<!-- Generated by IcoMoon.io -->
<svg version="1.1" xmlns="http://www.w3.org/2000/svg" width="32" height="32" viewBox="0 0 32 32">
<title>seat</title>
<path fill="#758290" d="M28.070 9.069l-1.984-0.007 0.013-4.103c0.001-0.899-0.623-1.631-1.386-1.633l-16.996-0.054c-0.764-0.001-1.393 0.726-1.396 1.625l-0.012 4.103-1.985-0.006 0.015-4.444c0.006-1.713 1.299-3.1 2.876-3.094l18.013 0.055c1.578 0.006 2.863 1.401 2.858 3.113l-0.015 4.445z"></path>
<path fill="#758290" d="M8.076 23.83l16.131 0.051-0.004 1.188c-0.003 0.831 0.623 1.511 1.404 1.514l2.068 0.004c0.781 0.003 1.411-0.672 1.412-1.505l0.042-12.873c0.001-0.832-0.624-1.511-1.404-1.514l-2.070-0.006c-0.78-0.003-1.409 0.673-1.412 1.504l-0.039 7.005-16.113-0.033 0.022-7.023c0.003-0.831-0.623-1.511-1.402-1.513l-2.070-0.007c-0.78-0.003-1.411 0.675-1.412 1.505l-0.041 12.874c-0.003 0.831 0.623 1.511 1.404 1.514l2.068 0.006c0.781 0.003 1.411-0.673 1.412-1.505l0.004-1.187zM27.786 28.963l-2.307-0.007c-1.679-0.004-3.031-1.434-3.027-3.181v-0.035l-12.62-0.039v0.035c-0.004 1.747-1.383 3.167-3.046 3.162l-2.307-0.007c-1.679-0.004-3.031-1.434-3.025-3.181l0.045-14.317c0.004-1.747 1.213-3.168 2.877-3.162l2.137 0.006c2.628 0.009 3.37 1.437 3.364 3.184l-0.017 5.767 12.602 0.022 0.036-5.75c0.004-1.747 1.062-3.152 3.232-3.145l2.476 0.009c1.68 0.004 2.692 1.433 2.688 3.18l-0.045 14.316c-0.023 1.731-1.385 3.151-3.063 3.145z"></path>
</svg>
