<!-- Generated by IcoMoon.io -->
<svg version="1.1" xmlns="http://www.w3.org/2000/svg" width="32" height="32" viewBox="0 0 32 32">
<title>statistics</title>
<path fill="#758290" d="M14.456 0c-8.111 0.803-14.456 7.619-14.456 15.96 0 2.406 0.562 4.651 1.446 6.657l13.010-7.459v-15.157zM3.133 25.423c3.001 4.145 7.813 6.592 12.93 6.576 5.117 0.016 9.93-2.431 12.931-6.576l-12.931-7.458-12.93 7.458zM19.677 2.727c1.124-0.641 0.884-2.245-0.32-2.485l-1.446-0.24h-0.24v1.602c0 0.963 1.123 1.605 2.007 1.123zM19.677 9.223l6.264-3.609c0.804-0.481 0.884-1.602 0.16-2.165-0.16-0.16-0.401-0.32-0.561-0.401-0.402-0.32-0.964-0.32-1.446-0.080l-5.782 3.368c-0.402 0.24-0.644 0.641-0.644 1.122v0.642c0 1.043 1.124 1.685 2.008 1.123zM18.312 15.559l0.24 0.16c0.401 0.24 0.883 0.24 1.285 0l9.798-5.614c0.313-0.156 0.545-0.437 0.637-0.775s0.036-0.698-0.155-0.991c-0.080-0.16-0.24-0.401-0.32-0.561-0.402-0.641-1.206-0.801-1.768-0.481l-9.717 5.612c-0.402 0.24-0.644 0.641-0.644 1.122v0.401c0 0.402 0.24 0.884 0.644 1.124v0.001zM29.315 19.569c-0.409 0.226-0.663 0.655-0.663 1.122s0.254 0.897 0.663 1.122l1.204 0.721 0.080 0.081c0-0.080 0.080-0.080 0.080-0.16 0.16-0.401 0.401-0.881 0.562-1.283 0.401-1.122-0.883-2.166-1.927-1.604zM31.964 13.634c-0.16-0.961-1.124-1.442-2.007-0.961l-6.345 3.688c-0.409 0.225-0.664 0.656-0.664 1.123s0.254 0.898 0.664 1.123l0.562 0.32c0.401 0.24 0.884 0.24 1.286 0l5.862-3.368c0.402-0.24 0.724-0.721 0.642-1.283 0.080-0.16 0-0.401 0-0.641v-0.001z"></path>
</svg>
