<!-- Generated by IcoMoon.io -->
<svg version="1.1" xmlns="http://www.w3.org/2000/svg" width="32" height="32" viewBox="0 0 32 32">
<title>survey-user</title>
<path fill="#758290" d="M30.134 9.868c-2.49-3.638-6.547-6.007-11.129-6.007-7.573 0-13.711 6.467-13.711 14.444 0 6.109 3.6 11.331 8.684 13.444h-10.721c-0.864 0-1.693-0.362-2.304-1.005s-0.954-1.517-0.954-2.427v-24.885c0-0.91 0.343-1.783 0.954-2.427s1.44-1.005 2.304-1.005h23.619c0.864 0 1.693 0.362 2.304 1.005s0.954 1.517 0.954 2.427v6.436zM27.934 24.951l3.524 3.713c0.723 0.764 0.723 1.999 0 2.763-0.725 0.764-1.898 0.764-2.622 0l-3.525-3.713c-1.835 1.367-4.028 2.1-6.276 2.096-6.015 0-10.889-5.137-10.889-11.473s4.874-11.473 10.889-11.473c6.015 0 10.889 5.137 10.889 11.473 0 2.463-0.736 4.744-1.99 6.613zM21.078 10.291c1.678 0.215 3.073 1.347 4.214 3.484 0.225 0.403 0.714 0.542 1.101 0.313s0.528-0.742 0.319-1.154c-1.378-2.583-3.201-4.061-5.437-4.347-0.289-0.037-0.575 0.091-0.749 0.337s-0.212 0.57-0.098 0.852c0.114 0.282 0.362 0.479 0.651 0.516z"></path>
</svg>
