<!-- Generated by IcoMoon.io -->
<svg version="1.1" xmlns="http://www.w3.org/2000/svg" width="32" height="32" viewBox="0 0 32 32">
<title>sys-detail</title>
<path fill="#758290" d="M15.906 17.414h2.231c0.099-0.366 0.15-0.743 0.151-1.122-0.002-2.373-1.871-4.294-4.175-4.292-0.156 0-0.312 0.010-0.467 0.027-1.922 0.235-3.437 1.795-3.663 3.776-0.26 2.358 1.386 4.487 3.676 4.755 0.154 0.018 0.31 0.027 0.464 0.028v-1.329c-0.003-1.014 0.792-1.839 1.776-1.842h0.007zM29.348 32h-12.531c-0.286 0-0.517-0.345-0.517-0.772v-1.82c0-0.424 0.231-0.772 0.517-0.772h12.531c0.288 0 0.518 0.346 0.518 0.772v1.82c0 0.427-0.231 0.772-0.518 0.772zM29.348 27.401h-12.531c-0.286 0-0.517-0.346-0.517-0.772v-1.821c0-0.428 0.231-0.771 0.517-0.771h12.531c0.288 0 0.518 0.345 0.518 0.771v1.821c0 0.426-0.231 0.772-0.518 0.772zM29.348 22.799h-12.531c-0.286 0-0.517-0.347-0.517-0.773v-1.817c0-0.425 0.231-0.772 0.517-0.772h12.531c0.288 0 0.518 0.347 0.518 0.772v1.82c0 0.424-0.231 0.77-0.518 0.77z"></path>
<path fill="#758290" d="M8.266 16.321c0.003-3.621 2.818-6.557 6.292-6.562 3.481 0.007 6.297 2.954 6.29 6.583 0 0.368-0.031 0.735-0.090 1.098h5.797c0.080-0.88 0.065-1.767-0.045-2.644l1.76-1.422c0.825-0.557 1.087-1.689 0.596-2.576l-2.569-4.639c-0.491-0.888-1.566-1.219-2.441-0.751l-2.055 0.876c-0.781-0.612-1.631-1.122-2.531-1.519l-0.3-2.299c-0.045-1.025-0.855-1.832-1.839-1.83h-5.145c-0.986-0.005-1.799 0.804-1.839 1.83l-0.304 2.299c-0.899 0.398-1.75 0.907-2.531 1.519l-2.058-0.876c-0.874-0.469-1.948-0.138-2.437 0.751l-2.571 4.646c-0.488 0.887-0.222 2.019 0.605 2.572l1.753 1.422c-0.122 1.011-0.122 2.035 0 3.047l-1.758 1.415c-0.828 0.554-1.091 1.69-0.597 2.576l2.569 4.642c0.249 0.442 0.644 0.762 1.122 0.896 0.441 0.124 0.912 0.069 1.317-0.152l2.057-0.875c0.774 0.606 1.624 1.115 2.531 1.519l0.304 2.301c0.042 1.026 0.854 1.834 1.839 1.832h2.568v-9.117c-3.473-0.006-6.285-2.941-6.288-6.561z"></path>
</svg>
