<!-- Generated by IcoMoon.io -->
<svg version="1.1" xmlns="http://www.w3.org/2000/svg" width="32" height="32" viewBox="0 0 32 32">
<title>tenant-modify</title>
<path fill="#758290" d="M10.316 20.393c0-0.777 0.659-1.406 1.472-1.406 0.815 0 1.474 0.629 1.474 1.406v1.404c0.004 0.506-0.277 0.971-0.734 1.222-0.459 0.254-1.020 0.254-1.478 0-0.457-0.252-0.736-0.717-0.734-1.222v-1.404zM15.476 25.435c0 2.27 1.515 4.169 3.58 4.796h-16.109c-1.628 0-2.948-1.257-2.948-2.81v-2.112c0-3.279 3.119-6.082 7.518-7.204v0.002c-0.096 0.277-0.149 0.574-0.149 0.881v2.807c0 0.747 0.311 1.461 0.864 1.988s1.303 0.821 2.084 0.821h2.946c0.783 0 1.532-0.294 2.084-0.821s0.864-1.242 0.864-1.988v-2.807c0-0.309-0.053-0.604-0.149-0.883 1.916 0.489 3.561 1.308 4.838 2.334-0.13-0.011-0.254-0.038-0.388-0.038-2.78 0-5.035 2.253-5.035 5.035zM11.789 17.583c-4.068 0-7.369-3.458-7.369-7.725s3.3-7.725 7.369-7.725c4.068 0 7.369 3.458 7.369 7.725s-3.3 7.725-7.369 7.725zM29.27 21.021c1.137 1.449 1.146 3.26 1.146 5.020 0 0.371-0.156 0.73-0.433 0.992-0.275 0.265-0.651 0.412-1.041 0.412h-2.714c0 0 0.307-2.091 0.156-3.424-0.177-1.577-1.658-3.735-3.313-5.007-0.604-0.465-1.261-0.862-1.943-1.199-0.271-0.134-2.116-1.094-2.33-0.9 1.702-1.545 2.778-3.817 2.778-6.351 0-1.532-0.395-2.965-1.077-4.203 3.070 0.22 5.498 2.961 5.498 6.308 0 2.185-1.035 4.111-2.605 5.246 0.273-0.196 1.869 0.518 2.178 0.636 1.385 0.529 2.769 1.286 3.701 2.47zM22.295 22.735l0.625 0.623c0.053 0.058 0.090 0.137 0.090 0.222 0 0.087-0.036 0.164-0.090 0.222l-0.403 0.401-1.067-1.065 0.403-0.403c0.055-0.058 0.132-0.092 0.22-0.092s0.166 0.034 0.222 0.092zM18.106 26.482l2.901-2.901 1.065 1.067-2.899 2.901c-0.055 0.055-0.134 0.090-0.222 0.090h-0.623c-0.173 0-0.314-0.139-0.314-0.311v-0.625c0-0.085 0.036-0.164 0.092-0.22z"></path>
</svg>
