<!-- Generated by IcoMoon.io -->
<svg version="1.1" xmlns="http://www.w3.org/2000/svg" width="28" height="32" viewBox="0 0 28 32">
<title>user-login</title>
<path fill="#69c9d1" d="M13.807 16.825c-3.679 0-6.632-2.954-6.632-6.632 0-3.677 2.954-6.631 6.632-6.631s6.632 2.954 6.632 6.631c0 3.679-2.954 6.632-6.632 6.632zM27.674 30.27c-0.061-5.786-3.679-10.791-8.803-12.781 2.29-1.567 3.798-4.221 3.798-7.236 0-4.882-3.979-8.861-8.863-8.861s-8.803 3.979-8.803 8.801c0 3.015 1.508 5.668 3.798 7.236-5.184 2.049-8.803 7.054-8.803 12.902h0.001c0 0.205 0.554 0.371 1.237 0.371 0.682 0 1.217-0.024 1.235-0.371 0-5.788 4.401-10.611 10.008-11.274 0.060 0 1.567-0.121 2.833 0h0.121c5.486 0.783 9.706 5.486 9.706 11.213 0 0.007-0.003 0.014-0.003 0.021-0.011 0.205 0.561 0.412 1.263 0.412s1.242-0.025 1.273-0.371c0.001-0.022 0-0.042-0.001-0.061h0.001z"></path>
</svg>
